…
將106年大學畢業薪資除以103年大學畢業薪資算出薪資比，由此可知大於1的值就是106年薪資大於103年薪資的值，比例越大差異越大。
\#\#\# 提高超過5%的的職業有哪些?

``` r
#這是R Code Chunk
pp2<-payjoin[payjoin$薪資比>1.05,]
pp2
```

    ## # A tibble: 58 x 28
    ##    年度.x 大職業別 `經常性薪資-薪資.x`~ `經常性薪資-女/男.x`~ `國中及以下-薪資.x`~
    ##    <chr>  <chr>    <chr>            <chr>            <chr>           
    ##  1 2014   其他服務業-技~ 24724            89.1             ""              
    ##  2 2014   住宿及餐飲業-~ 21647            98.45            20992           
    ##  3 2014   用水供應及污染~ 28552            99.46            ""              
    ##  4 2014   專業科學及技術~ 32078            99.63            ""              
    ##  5 2014   其他服務業-技~ 22861            98.83            ""              
    ##  6 2014   營造業-服務及~ 25075            99.74            23125           
    ##  7 2014   其他服務業-專~ 29500            99.66            ""              
    ##  8 2014   資訊及通訊傳播~ 30686            99.2             ""              
    ##  9 2014   不動產業-專業~ 32126            99.84            ""              
    ## 10 2014   教育服務業-事~ 22325            95.75            ""              
    ## # ... with 48 more rows, and 23 more variables:
    ## #   `國中及以下-女/男.x` <chr>, `高中或高職-薪資.x` <chr>,
    ## #   `高中或高職-女/男.x` <chr>, `專科-薪資.x` <chr>, `專科-女/男.x` <chr>,
    ## #   `大學-薪資.x` <chr>, `大學-女/男.x` <chr>,
    ## #   `研究所及以上-薪資.x` <chr>, `研究所及以上-女/男.x` <chr>,
    ## #   年度.y <chr>, `經常性薪資-薪資.y` <chr>, `經常性薪資-女/男.y` <chr>,
    ## #   `國中及以下-薪資.y` <chr>, `國中及以下-女/男.y` <chr>,
    ## #   `高中或高職-薪資.y` <chr>, `高中或高職-女/男.y` <chr>,
    ## #   `專科-薪資.y` <chr>, `專科-女/男.y` <chr>, `大學-薪資.y` <chr>,
…
